module gitlab.com/punitnaik/file-traversal-system-v0

go 1.21.5

require (
	github.com/gin-gonic/gin v1.9.1
	github.com/spf13/viper v1.18.2
	gopkg.in/src-d/go-git.v4 v4.13.1
)

require (
	github.com/bytedance/sonic v1.9.1 // indirect
	github.com/chenzhuoyu/base64x v0.0.0-20221115062448-fe3a3abad311 // indirect
	github.com/fsnotify/fsnotify v1.7.0 // indirect
	github.com/gabriel-vasile/mimetype v1.4.2 // indirect
	github.com/gin-contrib/sse v0.1.0 // indirect
	github.com/go-playground/locales v0.14.1 // indirect
	github.com/go-playground/universal-translator v0.18.1 // indirect
	github.com/go-playground/validator/v10 v10.14.0 // indirect
	github.com/goccy/go-json v0.10.2 // indirect
	github.com/hashicorp/hcl v1.0.0 // indirect
	github.com/json-iterator/go v1.1.12 // indirect
	github.com/klauspost/cpuid/v2 v2.2.4 // indirect
	github.com/leodido/go-urn v1.2.4 // indirect
	github.com/magiconair/properties v1.8.7 // indirect
	github.com/mattn/go-isatty v0.0.19 // indirect
	github.com/mitchellh/mapstructure v1.5.0 // indirect
	github.com/modern-go/concurrent v0.0.0-20180306012644-bacd9c7ef1dd // indirect
	github.com/modern-go/reflect2 v1.0.2 // indirect
	github.com/pelletier/go-toml/v2 v2.1.0 // indirect
	github.com/sagikazarmark/locafero v0.4.0 // indirect
	github.com/sagikazarmark/slog-shim v0.1.0 // indirect
	github.com/sourcegraph/conc v0.3.0 // indirect
	github.com/spf13/afero v1.11.0 // indirect
	github.com/spf13/cast v1.6.0 // indirect
	github.com/spf13/pflag v1.0.5 // indirect
	github.com/subosito/gotenv v1.6.0 // indirect
	github.com/twitchyliquid64/golang-asm v0.15.1 // indirect
	github.com/ugorji/go/codec v1.2.11 // indirect
	go.uber.org/atomic v1.9.0 // indirect
	go.uber.org/multierr v1.9.0 // indirect
	golang.org/x/arch v0.3.0 // indirect
	golang.org/x/exp v0.0.0-20230905200255-921286631fa9 // indirect
	golang.org/x/text v0.14.0 // indirect
	google.golang.org/protobuf v1.31.0 // indirect
	gopkg.in/ini.v1 v1.67.0 // indirect
	gopkg.in/yaml.v3 v3.0.1 // indirect
)

require (
	github.com/arangodb/go-driver v1.6.1
	github.com/arangodb/go-velocypack v0.0.0-20200318135517-5af53c29c67e // indirect
	github.com/emirpasic/gods v1.12.0 // indirect
	github.com/google/uuid v1.5.0
	github.com/jbenet/go-context v0.0.0-20150711004518-d14ea06fba99 // indirect
	github.com/kevinburke/ssh_config v0.0.0-20190725054713-01f96b0aa0cd // indirect
	github.com/mitchellh/go-homedir v1.1.0 // indirect
	github.com/pkg/errors v0.9.1 // indirect
	github.com/sergi/go-diff v1.0.0 // indirect
	github.com/src-d/gcfg v1.4.0 // indirect
	github.com/xanzy/ssh-agent v0.2.1 // indirect
	golang.org/x/crypto v0.16.0
	golang.org/x/net v0.19.0 // indirect
	golang.org/x/sys v0.15.0 // indirect
	gopkg.in/src-d/go-billy.v4 v4.3.2 // indirect
	gopkg.in/warnings.v0 v0.1.2 // indirect
)
